{
  "info" : {
    "author" : "xcode",
    "version" : 1
  },
  "images" : [
    {
      "filename" : "like~universal@1x.png",
      "scale" : "1x",
      "idiom" : "universal"
    },
    {
      "idiom" : "universal",
      "filename" : "like~universal@2x.png",
      "scale" : "2x"
    },
    {
      "filename" : "like~universal@3x.png",
      "idiom" : "universal",
      "scale" : "3x"
    }
  ]
}