{
  "info" : {
    "version" : 1,
    "author" : "xcode"
  },
  "images" : [
    {
      "idiom" : "universal",
      "scale" : "1x",
      "filename" : "tab-icon-movies~universal@1x.png"
    },
    {
      "scale" : "2x",
      "idiom" : "universal",
      "filename" : "tab-icon-movies~universal@2x.png"
    },
    {
      "idiom" : "universal",
      "filename" : "tab-icon-movies~universal@3x.png",
      "scale" : "3x"
    }
  ]
}